^C:\USERS\SANYA\CPPPROJ\VM_LAB5\VM_LAB5\DEBUG\SOURCE.OBJ
C:\USERS\SANYA\CPPPROJ\VM_LAB5\DEBUG\VM_LAB5.ILK
C:\USERS\SANYA\CPPPROJ\VM_LAB5\DEBUG\VM_LAB5.EXE
C:\USERS\SANYA\CPPPROJ\VM_LAB5\DEBUG\VM_LAB5.PDB
