^C:\USERS\SANYA\CPPPROJ\VM_LAB2\VM_LAB2\DEBUG\SOURCE.OBJ
C:\USERS\SANYA\CPPPROJ\VM_LAB2\DEBUG\VM_LAB2.EXE
C:\USERS\SANYA\CPPPROJ\VM_LAB2\DEBUG\VM_LAB2.ILK
C:\USERS\SANYA\CPPPROJ\VM_LAB2\DEBUG\VM_LAB2.PDB
